…
#### 3. Кластеризовать запросы от устройств к точкам доступа по их именам. Определить время появления устройства в зоне радиовидимости и время выхода его из нее

```r
data2 %>% group_by(Probed.ESSIDs) %>% summarize(unique_devices = n_distinct(Station.MAC), first_time_seen = min(First.time.seen), last_time_seen = max(Last.time.seen))
```

    # A tibble: 108 × 4
       Probed.ESSIDs          unique_devices first_time_seen     last_time_seen
       <chr>                           <int> <dttm>              <dttm>
     1 -D-13-                             16 2023-07-28 09:14:42 2023-07-28 10:26:42
     2 1                                  31 2023-07-28 10:36:12 2023-07-28 11:56:13
     3 107                                 1 2023-07-28 10:29:43 2023-07-28 10:29:43
     4 531                                 1 2023-07-28 10:57:04 2023-07-28 10:57:04
     5 AAAAAOB/CC0ADwGkRedmi…              3 2023-07-28 09:34:20 2023-07-28 11:44:40
     6 AKADO-D967                          1 2023-07-28 10:31:55 2023-07-28 10:31:55
     7 AQAAAB6zaIoATwEURedmi…              1 2023-07-28 10:25:19 2023-07-28 11:51:48
     8 ASUS                                1 2023-07-28 10:31:13 2023-07-28 10:31:13
     9 Alex-net2                           2 2023-07-28 10:01:06 2023-07-28 10:01:06
    10 AndroidAP177B                       1 2023-07-28 09:13:09 2023-07-28 11:34:42
    # ℹ 98 more rows

#### 4. Оценить стабильность уровня сигнала внури кластера во времени. Выявить наиболее стабильный кластер

```r
data2 %>% group_by(Probed.ESSIDs) %>% summarise(sd_signal = sd(Power, na.rm = TRUE)) %>% arrange(sd_signal)
```

    Warning: There was 1 warning in `summarise()`.
    ℹ In argument: `sd_signal = sd(Power, na.rm = TRUE)`.
    ℹ In group 108: `Probed.ESSIDs = NA`.
    Caused by warning in `var()`:
    ! в результате преобразования созданы NA

    # A tibble: 108 × 2
       Probed.ESSIDs  sd_signal
       <chr>              <dbl>
     1 Galaxy A71         0.707
     2 Kesha              1.41
     3 podval             1.63
     4 Tupik              2.31
     5 KB-12              2.83
     6 Reconn-Guest       2.83
     7 MT_FREE            2.97
     8 IKB                3.06
     9 OKB                3.06
    10 Rayskaya_banya     3.06
    # ℹ 98 more rows
…
